<?xml version="1.0" encoding="utf-8"?>
<!-- Generator: Adobe Illustrator 16.0.0, SVG Export Plug-In . SVG Version: 6.00 Build 0)  -->
<!DOCTYPE svg PUBLIC "-//W3C//DTD SVG 1.1//EN" "http://www.w3.org/Graphics/SVG/1.1/DTD/svg11.dtd">
<svg version="1.1" id="Layer_1" xmlns="http://www.w3.org/2000/svg" xmlns:xlink="http://www.w3.org/1999/xlink" x="0px" y="0px"
	 width="989.998px" height="954.975px" viewBox="0 0 989.998 954.975" enable-background="new 0 0 989.998 954.975"
	 xml:space="preserve">
<path class="color_3 contours" fill="#C46946" d="M690.675,833.457c-0.155-7.633,1.1-13.559,10.813-13.501c24.564,0.183,49.12,0.145,73.685,0
	c10.659-0.058,10.899,6.794,11.044,14.716c0.135,8.692-2.12,14.021-12.133,13.703c-12.277-0.386-24.574-0.097-36.852-0.097
	c-11.824-0.009-23.649-0.136-35.475,0.021c-0.115,0-0.23,0.009-0.347,0.009C691.002,848.308,690.83,841.061,690.675,833.457
	 M514.001,819.917c10.051-0.366,12.456,4.887,12.094,13.607c-0.308,7.757-0.506,14.869-11.184,14.803
	c-24.56-0.146-49.114-0.067-73.674-0.049c-10.827,0.01-10.451-7.458-10.658-15.11c-0.197-7.999,1.706-13.376,11.121-13.203
	c11.821,0.212,23.653,0.049,35.479,0.049c3.797,0,7.595,0.029,11.405,0.06c3.644,0.027,7.271,0.065,10.914,0.065
	C504.335,820.139,509.168,820.081,514.001,819.917 M728.644,758.81c5.358,0,10.938-0.309,16.315,4.905
	c-12.942,6.91-260.746,6.755-272.985-0.096c4.68-5.041,10.61-4.811,16.307-4.811C568.396,758.761,648.521,758.752,728.644,758.81
	 M743.639,739.738H470.23C481.843,731.402,731.275,730.592,743.639,739.738 M473.02,710.316h273.318
	c-5.646,4.239-74.532,6.572-141.799,6.572C541.249,716.89,479.395,714.816,473.02,710.316 M794.08,633.549
	c-0.424-16.162-0.174-32.341-0.174-49.601c10.303,3.555,14.765,9.077,14.406,18.665c-0.375,9.983-0.26,20.007-0.097,29.99
	c0.115,6.91-2.804,12.489-9.569,12.489C790.677,645.094,794.195,637.673,794.08,633.549 M409.677,638.694
	c-1.941-14.851-2.367-29.979,0.073-44.764c0.944-5.705,6.967-9.06,15.172-10.456c0,18.367,0.13,35.618-0.105,52.888
	c-0.053,3.526,2.092,9.011-4.563,9.31c-0.174,0.01-0.351,0.01-0.54,0.01C414.904,645.682,410.25,643.032,409.677,638.694
	 M587.208,543.713c4.304-1.025,8.871,0.318,13.617,1.647c3.638,1.036,7.396,2.054,11.213,2.015
	c46.884-0.472,93.777-0.271,140.67-0.207c18.841,0.029,23.062,4.313,23.119,23.389c0.097,28.686,0.115,57.364,0,86.044
	c-0.067,16.69-5.127,21.74-22.088,21.779c-48.263,0.116-96.523,0.038-144.775,0.038c-47.81,0.029-95.608,0.049-143.401,0.029
	c-20.518-0.029-24.306-4.153-24.671-24.796c-0.536-29.565,1.243-59.113-0.969-88.67c-0.857-11.599,6.375-17.5,17.843-17.616
	c8.321-0.066,16.647-0.048,24.974-0.028c15.391,0.028,30.762,0.067,46.118-0.525c5.923-0.226,11.85-0.179,17.795-0.14
	c2.496,0.033,5.002,0.053,7.507,0.053C565.172,546.725,576.183,546.319,587.208,543.713 M453.235,434.334
	c-27.601,0.106-37.863,11.458-36.64,38.518c1.15,25.39,9.099,49.948,8.654,75.53c-0.338,19.004-5.922,26.882-23.982,33.193
	c-7.988,2.805-19.062-0.375-23.73,7.97c-4.399,7.893-1.147,17.886-1.629,26.945c-0.129,2.273-0.009,4.549-0.009,6.822
	c0.009,25.827,0.009,25.827,25.471,27.543c17.385,1.175,23.565,7.525,23.455,24.595c-0.396,64.624-0.881,129.259-1.325,193.902
	c-0.038,6.468-0.385,14.378,6.712,16.489c10.027,3.007,8.726,9.984,8.746,17.115c0.029,6.823,0.226,13.666-0.029,20.487
	c-0.355,9.637,3.749,14.438,13.686,14.282c15.028-0.213,30.077-0.387,45.102,0.038c10.144,0.288,14.05-4.857,14.248-14.012
	c0.188-8.654,0.39-17.317-0.011-25.963c-0.317-7.189,2.675-9.463,9.643-9.435c57.847,0.183,115.721,0.221,173.562-0.038
	c8.259-0.038,10.032,3.604,9.705,10.765c-0.366,8.189-0.146,16.401-0.039,24.604c0.152,9.436,4.817,14.155,14.494,14.061
	c15.015-0.163,30.058-0.184,45.082-0.02c10.021,0.114,13.81-5.003,13.501-14.515c-0.261-8.652-0.115-17.307,0.027-25.961
	c0.06-3.431-1.012-7.614,4.203-8.675c11.987-2.457,12.112-11.419,12.084-21.085c-0.222-60.133-0.202-120.259-0.26-180.384
	c-0.039-32.188-0.058-32.188,32.466-36.853c1.351-0.192,2.66-0.731,4.01-0.818c7.971-0.453,10.985-4.54,10.581-12.499
	c-0.501-10.004-0.126-20.034-0.126-30.066c0-19.814-0.229-18.928-20.016-24.18c-23.253-6.147-27.6-12.981-27.523-32.043
	c0.126-27.938,5.014-55.205,7.788-82.747c0.857-8.417-1.052-15.352-5.908-21.641c-7.699-9.965-18.617-11.998-30.521-11.959
	c-51.934,0.135-103.866,0.048-155.8,0.048v-0.067c-30.521,0-61.055-0.048-91.575-0.048
	C495.965,434.237,474.601,434.256,453.235,434.334"/>
<path class="color_3 contours" fill="#C46946" d="M974.559,526.188c-49.427,7.329-98.94,14.229-147.56,26.207c-4.048,0.998-11.671-0.587-11.122,4.578
	c0.617,6.063,6.91,10.563,13.569,11.699c2.93,0.491,6.206-0.978,9.31-1.639c37.198-7.937,74.589-14.715,112.561-19.896
	c-0.387,4.813-3.941,5.771-6.246,7.695c-45.969,38.394-84.448,82.819-110.149,137.441c-28.582,60.702-30.674,124.644-22.878,189.751
	c2.604,21.682,6.979,43.019,12.625,64.144c2.533,9.482,9.068,9.541,15.727,8.152c8.789-1.831,2.757-8.134,1.813-11.737
	c-7.295-27.734-12.865-55.664-15.919-84.266c-7.267-67.893,5.348-131.227,40.725-189.81
	c29.691-49.158,70.194-88.019,116.202-121.607c5.012-3.652,8.837-6.621,5.571-14.331c-2.314-5.479-5.514-6.852-9.396-6.852
	C977.874,525.722,976.273,525.934,974.559,526.188"/>
<path class="color_3 contours" fill="#C46946" d="M327.831,947.309c-0.988,5.955,0.847,6.88,5.95,7.382c8.033,0.79,10.923-2.948,12.976-10.255
	c11.28-40.014,27.456-78.039,49.847-113.078c6.67-10.438,7.189-18.804-0.434-29.133C371.36,831.414,333.492,912.77,327.831,947.309"
	/>
<path class="color_4 contours" fill="#737372" d="M551.599,28.254c23.398,3.854,46.35,9.666,68.554,18.078c6.226,2.356,15.063,1.831,14.552,12.809
	c-0.193,3.864,3.912,2.226,6.428,1.517c3.189-0.906,5.869-5.031,9.791-1.638c0.512,3.671-2.631,5.594-3.884,8.389
	c-5.666,12.542,7.247,9.55,11.575,13.587c5.02,4.688,10.242,2.882,11.092-3.411c1.599-11.786,6.822-6.959,12.586-3.971
	c32.09,16.687,60.673,38.418,88.389,61.372c0.966,1.557,2.103,3.187,3.961,1.37c0.396-0.382-0.605-2.179-0.954-3.326
	c-2.428-2.693-4.645-5.633-7.304-8.071C651.211,19.763,516.391-20.52,363.55,9.847C171.417,48.009,29.128,205.838,3.639,403.38
	c-24.612,190.687,77.472,380.987,250.368,466.571c2.443,1.216,4.91,4.588,8.625,1.37C91.465,767.021,13.309,615.489,30.193,415.677
	c1.788,9.256,10.635,14.089,14.335,22.213c2.419,5.312,7.768,11.979,13.285,9.339c5.667-2.719-1.788-8.982-1.393-15.419
	c10.383,5.392,17.685,14.113,18.725,23.696c2.741,25.509,20.531,32.516,40.851,37.15c20.826,4.761,37.324,16.629,52.439,30.704
	c6.423,5.97,13.603,15.104,20.921,13.974c16.46-2.569,11.988,8.418,12.683,15.794c0.583,6.37-2.063,12.369-4.959,18.199
	c-7.594,15.348-4.033,36.145,7.464,45.762c-10.273,9.106-10.143,14.013-0.603,24.285c3.089,3.334,9.174,3.489,9.955,8.604
	c2.954,19.398,22.286,26.012,29.725,43.896c22.844-52.512,44.258-101.776,79.717-146.559c-10.095,1.069-14.055-4.408-18.417-9.646
	c-7.488-9.001-17.033-15.901-28.53-17.434c-8.24-1.104-13.834-5.531-20.623-8.848c-8.654-4.226-19.125-7.993-28.834-1.619
	c-8.822,5.793-14.499,19.883-28.718,9.993c-18.627,9.623-14.832-3.926-14.504-14.002c0.226-7.381,0.983-16.557-9.049-16.807
	c-14.832-0.333-14.215-7.411-11.043-18.098c1.224-4.116,4.057-10.813-3.032-12.74c-6.037-1.658-12.87-1.98-17.091,4.75
	c-0.969,1.538-1.725,3.194-2.616,4.786c-2.149,3.878-5.093,6.527-9.888,5.584c-4.587-0.916-6.75-4.323-7.806-8.539
	c-2.366-9.4-2.405-18.946-1.34-28.505c1.836-16.296,9.709-22.272,25.784-19.285c6.88,1.283,12.846,2.317,20.459-0.235
	c8.779-2.973,20.352-3.326,23.316,11.111c1.046,5.122,3.908,10.133,10.577,11.442c3.377-7.169,3.18-14.889,0.526-21.393
	c-5.331-13.044,0.829-22.695,10.214-27.885c13.844-7.687,19.746-20.041,25.283-32.973c3.258-7.594,7.29-13.213,15.197-16.084
	c3.601-1.32,7.281-2.458,6.592-8.524c-0.79-6.819,16.97-21.081,21.134-17.173c11.487,10.78,14.205-3.295,21.523-4.341
	c-3.267-6.109-16.132-5.3-8.672-15.809c7.618-10.726,17.544-17.703,30.746-19.588c0.978-1.007,2.096-1.725,3.002-0.129
	c0.216,0.366-0.679,1.363-1.065,2.076c-3.17,9.078-13.453,14.456-13.974,25.427c5.951,0.347,11.309-2.12,16.008,3.041
	c2.967,3.258,8.345,5.132,12.257,1.32c3.393-3.334,1.32-8.07-0.872-11.367c-6.346-9.521-7.58-20.271-8.765-31.161
	c-0.274-2.597-0.766-6.457-2.477-7.445c-13.212-7.58-16.802-20.416-20.362-33.778c-1.456-5.45-4.105-11.091-10.466-15.077
	c-2.039,6.028-5.305,10.51-12.557,8.779c-3.643-0.868-6.139-2.919-5.696-6.471c2.082-16.412-10.668-17.25-21.07-19.953
	c-15.492-4.047-15.198-2.814-19.289,12.759c-2.934,11.15,6.978,27.061-10.977,33.257c-0.087,0.029-0.067,0.974,0.169,1.291
	c7.372,9.946-4.727,16.066-5.026,25.668c-1.489-18.7-14.099-24.246-28.794-27.644c-1.697-0.385-3.167-1.725-4.757-2.62
	c-21.553-12.109-23.061-17.521-6.355-35.103c12.161-12.822,21.769-29.012,39.969-35.005c15.699-5.166,20.107-17.246,10.644-32.274
	c11.193,2.799,22.444,2.808,31.532,9.588c9.333,6.977,9.049,12.201-0.501,18.908c-4.462,3.141-9.318,5.734-13.699,8.991
	c-3.642,2.703-4.558,7.213,0.554,8.061c18.156,2.984,31.48,15.583,47.94,24.05c2.674-11.724,5.276-22.035,0.53-32.073
	c5.724-3.946,10.402,6.838,16.214-1.33c7.194-10.089,5.18-18.021-7.95-23.952c-3.296-1.489-9.752,1.103-7.84-7.497
	c2.39-10.837-3.609-17.015-14.475-18.287c-3.719-0.443-7.299-1.291-9.988-3.942c-10.668-10.484-25.479-8.413-38.258-11.265
	c-6.553-1.475-7.262-3.71-9.917-7.965c22.126-0.92,22.588-2.39,32.674-8.37c5.662-3.364,0.217-8.654,6.355-12.451
	c21.621-13.386,22.175-14.406,54.005-5.753c-7.141,3.816-15.68,0.433-22.435,4.905c5.918,8.505,5.918,8.505,21.64,9.453
	c25.427,1.547,30.333,6.501,32.525,30.67c0.707,7.825,2.809,15.688,11.685,19.322c6.895,2.829,6.553,6.742,0.414,10.398
	c-10.244,6.129-11.15,13.887-6.042,24.357c2.892,5.897,3.387,13.135,4.236,19.852c1.556,12.182,14.623,27.013,26.534,26.165
	c8.53-0.602,8.925-11.507,13.016-17.757c1.233-1.863,2.053-4.08,2.712-6.244c4.462-14.745,11.251-26.178,29.282-27.007
	c5.772-0.271,11.516-5.104,16.941-8.389c7.786-4.718,14.792-11.025,23.022-14.596c7.126-3.088,5.815-17.457,17.974-12.87
	c0.038,0.029,0.707-2.12,1.339-3.089c4.553-6.91,1.541-16.893,9.613-22.656c1.956-1.401,3.011-6.206,2.289-8.852
	c-3.552-12.985-0.18-20.715,14.661-20.262c-1.764-8.09-10.397-6.63-12.226-10.152c8.174-13.428,15.67-27.118,33.484-26.337
	c0.227,0,0.752-0.752,0.67-1.017C539.197,21.503,548.738,27.776,551.599,28.254 M180.419,147.418
	c-5.658-7.319-7.315-12.855,1.932-17.129C186.394,135.816,183.888,140.717,180.419,147.418 M214.322,146.917
	c-0.193-5.754-1.075-10.721-4.559-14.566c-1.773-1.312-3.681-2.477-5.257-3.989c-8.852-8.394-8.803-14.852,5.276-18.571
	c-0.631,7.459-2.365,14.821,1.017,21.692C218.99,134.105,226.493,136.968,214.322,146.917 M362.504,121.191
	c-1.547-0.8-2.939-1.446-1.941-3.002c0.529-0.849,1.676-1.301,2.545-1.932c0.423,0.68,1.301,1.499,1.155,2.024
	C363.964,119.356,363.107,120.261,362.504,121.191 M467.494,122.531c4.933-2.742,8.315-0.876,11.544,3.05
	C474.301,127.321,470.52,127.022,467.494,122.531"/>
<path class="color_4 contours" fill="#737372" d="M901.396,374.696c-6.477-35.536-16.673-69.954-31.687-102.797c-22.493-49.162-50.652-94.576-89.826-132.459
	c-0.868-0.751-2.13-2.317-2.535-2.115c-2.369,1.147-1.05,2.549,0.106,3.83c0.396,0.82,1.012,1.6,1.157,2.467
	c1.049,6.534-19.66,31.696-25.896,31.46c-0.867-0.029-1.813-0.396-2.544-0.876c-5.521-3.633-7.845-9.802-7.18-15.356
	c0.665-5.557,6.756-1.567,10.312-2.405c1.282-0.298,2.758,0.284,4.087,0.106c4.653-0.612,11.65,2.722,13.25-3.345
	c1.735-6.682-5.83-8.312-10.358-10.687c-12.875-6.78-26.029-12.938-38.134-21.259c-9.107-6.264-18.851-3.73-28.621,0.328
	c-32.65,13.53-49.015,44.595-72.913,67.468c-7.683,7.362-3.816,31.628,3.132,37.806c2.669,2.371,14.041-0.809,6.9,8.804
	c-3.547,4.755,1.455,13.024-4.25,14.889c-12.837,4.216-19.583,15.26-30.006,23.663c8.631-16.614-4.766-27.402-8.342-40.557
	c-1.31-4.833-4.113-8.803-5.256-13.438c-0.554-2.294,4.784-5.961-1.479-6.949c-3.181-0.491-6.326,0.366-8.896,2.635
	c-6.226,5.518-7.431,23.77-0.578,28.56c6.322,4.41,6.148,6.736,0.336,10.437c-3.752,2.399-7.235,6.731-5.327,10.09
	c3.72,6.558-1.64,9.42-5.411,14.7H588.5c-6.979,8.428-17.14,9.821-22.344,17.242c2.616,4.37,7.787,3.251,10.794,5.734
	c4.51,3.729,9.883,8.206,9.425,14.267c-0.529,6.996-7.806,6.254-12.962,7.382c-1.345,0.299-2.688,0.54-4.048,0.722
	c-19.905,2.583-19.905,2.583-19.979,22.339c-0.009,4.105-0.038,8.211,0.224,12.296c0.153,2.573-0.039,5.181,2.817,7.093
	c14.369,9.594,37.859,1.629,43.381-15.197c4.719-14.365,10.909-26.319,29.276-23.996c1.967,0.246,4.185-1.533,6.284-2.371
	c0.559-0.405,1.137-0.801,1.695-1.196c0.02,0.979,0.049,1.957,0.087,2.944c-0.222,1.77-0.606,3.532-0.693,5.305
	c-0.338,7.869-0.762,21.409,4.674,21.22c10.37-0.336,2.728-12.219,5.061-18.68c0.105-0.295,0.337-0.565,0.55-0.811
	c-0.098-0.1-0.185-0.197-0.29-0.293c-0.463-0.01-0.906-0.02-1.379-0.029c0.067-0.415,0.106-0.82,0.146-1.214
	c0.424,0.415,0.828,0.829,1.233,1.243c0.174,0.009,0.348,0.009,0.521,0.009c-0.066,0.097-0.153,0.184-0.229,0.284
	c0.018,0.011,0.018,0.011,0.038,0.02c4.809,3.176,9.8,6.128,14.396,9.604c4.896,3.69,14.358,7.251,1.734,13.409
	c-1.852,0.901-2.65,2.665-1.271,4.333c1.716,2.033,3.815,4.172,6.745,3.748c4.818-0.699,14.87-19.072,14.302-25.499
	c-0.097-0.049-0.153-0.097-0.252-0.145c-0.074-0.15-0.161-0.27-0.229-0.415c-9.262-3.297-17.424-7.985-21.605-17.703
	c9.349,3.224,16.885,8.701,21.605,17.703c0.155,0.058,0.3,0.116,0.462,0.174c0.021,0.119,0.011,0.27,0.021,0.385
	c9.153,5.338,11.158,14.725,12.875,24c0.963,5.161,3.546,6.896,8.384,6.583c4.954-0.333,5.357-3.787,5.888-7.627
	c0.742-5.464-2.707-11.931,3.363-16.233c3.354,1.233,4.077,3.738,3.826,6.664c-1.187,13.983,5.889,17.987,18.975,17.876
	c52.551-0.414,104.542,5.185,155.926,16.306C904.288,390.712,904.288,390.583,901.396,374.696 M692.342,219.498
	c-3.826,2.9-4.578,8.023-5.137,12.354c-1.156,8.736-5.57,12.871-14.194,13.424c-3.586,0.237-7.2,1.132-10.648,2.188
	c-13.802,4.284-14.929,3.623-18.33-12.977c7.188,3.474,10.696,14.104,18.282,8.023c9.279-7.449,14.214-19.641,12.411-30.482
	c-3.595-21.78,10.255-32.948,22.482-45.78c-0.56,7.502-5.666,12.711-9.464,18.513c-5.107,7.816-5.415,13.559,3.914,18.938
	C702.47,209.938,702.008,212.116,692.342,219.498"/>
</svg>
